<svg width="40" height="39" viewBox="0 0 40 39" fill="none" xmlns="http://www.w3.org/2000/svg">
<path d="M32.299 38.1177L7.12763 38.1085C3.18934 38.1085 0 34.9146 0 30.9763L0.00921776 7.12763C0.00921776 3.18934 3.20317 0 7.13915 0L32.3105 0.00921776C36.2488 0.00921776 39.4382 3.20317 39.4382 7.14146L39.429 30.9924C39.429 34.9307 36.235 38.12 32.2967 38.12" fill="#154F84"/>
<path d="M27.3674 8.71533H24.2679V11.9139H27.3674C30.1788 11.9139 32.4648 14.1999 32.4648 17.0113C32.4648 19.8227 30.1788 22.1087 27.3674 22.1087H21.3159L21.3413 8.71994H12.0728C7.49853 8.71994 3.77686 12.4416 3.77686 17.0159C3.77686 21.5902 7.49853 25.3119 12.0844 25.3119L15.1723 25.2981L15.1516 22.0995L12.0728 22.1133C9.26142 22.1133 6.97542 19.8273 6.97542 17.0159C6.97542 14.2045 9.26142 11.9185 12.0728 11.9185H18.1427V32.0455H21.3413L21.3159 25.3073H27.3674C31.9417 25.3073 35.6634 21.5856 35.6634 17.0113C35.6634 12.437 31.9417 8.71533 27.3674 8.71533Z" fill="white"/>
</svg>
