<svg viewBox="0 0 182 39" fill="none" xmlns="http://www.w3.org/2000/svg">
<path d="M55.0921 22.2378V31.2712H51.1792V8.15076H59.7563C64.1901 8.15076 67.1259 11.1511 67.1259 15.1954C67.1259 19.2397 64.1901 22.2378 59.7563 22.2378H55.0921ZM59.1687 18.7811C61.646 18.7811 63.1462 17.4123 63.1462 15.2277C63.1462 13.0431 61.646 11.6074 59.1687 11.6074H55.0921V18.7811H59.1687Z" fill="currentColor"/>
<path d="M78.7702 19.1406C78.3462 19.0761 77.9222 19.0438 77.5304 19.0438C74.5946 19.0438 73.258 20.7399 73.258 23.7057V31.2712H69.4741V15.3913H73.1589V17.9354C73.9102 16.2071 75.6708 15.1954 77.7563 15.1954C78.2126 15.1954 78.6043 15.26 78.7679 15.2922V19.1406H78.7702Z" fill="currentColor"/>
<path d="M95.2516 26.7383C94.4036 29.5105 91.894 31.7597 88.0779 31.7597C83.7732 31.7597 79.957 28.6279 79.957 23.2494C79.957 18.228 83.6741 14.9004 87.6861 14.9004C92.5761 14.9004 95.4475 18.1289 95.4475 23.1503C95.4475 23.7702 95.383 24.291 95.3484 24.3578H83.7386C83.8354 26.7706 85.7274 28.4989 88.0756 28.4989C90.4238 28.4989 91.5322 27.2914 92.053 25.7266L95.2493 26.7383H95.2516ZM91.6313 21.5856C91.5668 19.7259 90.327 18.0644 87.7184 18.0644C85.3379 18.0644 83.9668 19.8895 83.8377 21.5856H91.6313Z" fill="currentColor"/>
<path d="M100.418 26.0539C100.55 27.4896 101.623 28.7616 103.647 28.7616C105.211 28.7616 106.027 27.9136 106.027 26.9365C106.027 26.0885 105.44 25.4363 104.168 25.1759L101.819 24.6551C99.0149 24.0352 97.5469 22.2101 97.5469 20.0255C97.5469 17.2533 100.091 14.905 103.384 14.905C107.82 14.905 109.253 17.7741 109.514 19.3411L106.318 20.2536C106.186 19.3411 105.502 17.8731 103.384 17.8731C102.047 17.8731 101.1 18.7212 101.1 19.6983C101.1 20.5463 101.72 21.1662 102.697 21.3621L105.11 21.8506C108.11 22.5028 109.675 24.3279 109.675 26.6761C109.675 29.0243 107.719 31.762 103.674 31.762C99.0771 31.762 97.3165 28.7616 97.1206 26.9688L100.414 26.0562L100.418 26.0539Z" fill="currentColor"/>
<path d="M115.252 23.3139C115.252 26.5102 117.305 28.303 119.686 28.303C122.066 28.303 123.306 26.5747 123.663 25.3672L126.989 26.5747C126.237 29.052 123.857 31.7597 119.683 31.7597C115.022 31.7597 111.466 28.1394 111.466 23.3139C111.466 18.4884 115.019 14.9004 119.584 14.9004C123.857 14.9004 126.205 17.5758 126.857 20.1176L123.465 21.3574C123.106 19.9563 122.029 18.3893 119.617 18.3893C117.204 18.3893 115.247 20.1176 115.247 23.3139" fill="currentColor"/>
<path d="M138.861 19.1406C138.437 19.0761 138.013 19.0438 137.621 19.0438C134.685 19.0438 133.349 20.7399 133.349 23.7057V31.2712H129.565V15.3913H133.25V17.9354C134.001 16.2071 135.762 15.1954 137.847 15.1954C138.303 15.1954 138.695 15.26 138.859 15.2922V19.1406H138.861Z" fill="currentColor"/>
<path d="M142.859 7.33496C144.228 7.33496 145.339 8.4434 145.339 9.81223C145.339 11.1811 144.23 12.2572 142.859 12.2572C141.488 12.2572 140.414 11.1811 140.414 9.81223C140.414 8.4434 141.522 7.33496 142.859 7.33496ZM141.002 15.389H144.751V31.2689H141.002V15.3913V15.389Z" fill="currentColor"/>
<path d="M148.648 31.2712V7.66223H152.365V17.3478C153.082 16.108 154.909 14.9673 157.354 14.9673C162.115 14.9673 164.691 18.5876 164.691 23.2495C164.691 27.9113 161.855 31.663 157.223 31.663C154.971 31.663 153.245 30.6859 152.333 29.1511V31.2712H148.648ZM156.605 18.3249C154.192 18.3249 152.333 20.1177 152.333 23.2817C152.333 26.4457 154.19 28.3031 156.605 28.3031C159.02 28.3031 160.878 26.4112 160.878 23.2817C160.878 20.1523 159.117 18.3249 156.605 18.3249Z" fill="currentColor"/>
<path d="M167.846 37.6959L171.662 29.3792L164.88 15.3912H169.153L173.718 25.434L177.988 15.3912H182L171.89 37.6959H167.846Z" fill="currentColor"/>
<path d="M32.299 38.1177L7.12763 38.1085C3.18934 38.1085 0 34.9146 0 30.9763L0.00921776 7.12763C0.00921776 3.18934 3.20317 0 7.13915 0L32.3105 0.00921776C36.2488 0.00921776 39.4382 3.20317 39.4382 7.14146L39.429 30.9924C39.429 34.9307 36.235 38.12 32.2967 38.12" fill="currentColor"/>
<path d="M27.3674 8.71533H24.2679V11.9139H27.3674C30.1788 11.9139 32.4648 14.1999 32.4648 17.0113C32.4648 19.8227 30.1788 22.1087 27.3674 22.1087H21.3159L21.3413 8.71994H12.0728C7.49853 8.71994 3.77686 12.4416 3.77686 17.0159C3.77686 21.5902 7.49853 25.3119 12.0844 25.3119L15.1723 25.2981L15.1516 22.0995L12.0728 22.1133C9.26142 22.1133 6.97542 19.8273 6.97542 17.0159C6.97542 14.2045 9.26142 11.9185 12.0728 11.9185H18.1427V32.0455H21.3413L21.3159 25.3073H27.3674C31.9417 25.3073 35.6634 21.5856 35.6634 17.0113C35.6634 12.437 31.9417 8.71533 27.3674 8.71533" fill="white"/>
</svg>
